{
  "ABIRoot": {
    "kind": "Root",
    "name": "TopLevel",
    "printedName": "TopLevel",
    "children": [
      {
        "kind": "Import",
        "name": "TransactionSDK",
        "printedName": "TransactionSDK",
        "declKind": "Import",
        "moduleName": "MagicPosHardware",
        "declAttributes": [
          "RawDocComment"
        ]
      },
      {
        "kind": "Import",
        "name": "TransactionSDK",
        "printedName": "TransactionSDK",
        "declKind": "Import",
        "moduleName": "MagicPosHardware",
        "declAttributes": [
          "RawDocComment"
        ]
      },
      {
        "kind": "Import",
        "name": "TransactionSDK",
        "printedName": "TransactionSDK",
        "declKind": "Import",
        "moduleName": "MagicPosHardware",
        "declAttributes": [
          "RawDocComment"
        ]
      },
      {
        "kind": "Import",
        "name": "TransactionSDK",
        "printedName": "TransactionSDK",
        "declKind": "Import",
        "moduleName": "MagicPosHardware",
        "declAttributes": [
          "RawDocComment"
        ]
      },
      {
        "kind": "TypeDecl",
        "name": "MagicPosConfigurationFactory",
        "printedName": "MagicPosConfigurationFactory",
        "declKind": "Struct",
        "usr": "s:16MagicPosHardware0aB20ConfigurationFactoryV",
        "mangledName": "$s16MagicPosHardware0aB20ConfigurationFactoryV",
        "moduleName": "MagicPosHardware",
        "declAttributes": [
          "AccessControl"
        ]
      },
      {
        "kind": "Import",
        "name": "TransactionSDK",
        "printedName": "TransactionSDK",
        "declKind": "Import",
        "moduleName": "MagicPosHardware",
        "declAttributes": [
          "RawDocComment"
        ]
      },
      {
        "kind": "TypeDecl",
        "name": "MagicPosMocksProviders",
        "printedName": "MagicPosMocksProviders",
        "children": [
          {
            "kind": "Function",
            "name": "provideMposService",
            "printedName": "provideMposService(useDefaultConnectionAnswer:aMposInfoAnswer:aMposIdAnswer:aStartEmvAnswer:aUpdateFirmwareAnswer:aUpdateEmvConfigurationAnswer:aSendOnlineResultAnswer:aWaitForCardAnswer:iccTags:)",
            "children": [
              {
                "kind": "TypeNominal",
                "name": "StubMPOSServiceProtocol",
                "printedName": "MagicPosHardware.StubMPOSServiceProtocol",
                "usr": "s:16MagicPosHardware23StubMPOSServiceProtocolC"
              },
              {
                "kind": "TypeNominal",
                "name": "Bool",
                "printedName": "Swift.Bool",
                "hasDefaultArg": true,
                "usr": "s:Sb"
              },
              {
                "kind": "TypeNominal",
                "name": "Optional",
                "printedName": "((any MagicPosHardware.MPOSServiceListener) -> ())?",
                "children": [
                  {
                    "kind": "TypeFunc",
                    "name": "Function",
                    "printedName": "(any MagicPosHardware.MPOSServiceListener) -> ()",
                    "children": [
                      {
                        "kind": "TypeNominal",
                        "name": "Void",
                        "printedName": "()"
                      },
                      {
                        "kind": "TypeNominal",
                        "name": "MPOSServiceListener",
                        "printedName": "any MagicPosHardware.MPOSServiceListener",
                        "usr": "c:objc(pl)MPOSServiceListener"
                      }
                    ]
                  }
                ],
                "hasDefaultArg": true,
                "usr": "s:Sq"
              },
              {
                "kind": "TypeNominal",
                "name": "Optional",
                "printedName": "((any MagicPosHardware.MPOSServiceListener) -> ())?",
                "children": [
                  {
                    "kind": "TypeFunc",
                    "name": "Function",
                    "printedName": "(any MagicPosHardware.MPOSServiceListener) -> ()",
                    "children": [
                      {
                        "kind": "TypeNominal",
                        "name": "Void",
                        "printedName": "()"
                      },
                      {
                        "kind": "TypeNominal",
                        "name": "MPOSServiceListener",
                        "printedName": "any MagicPosHardware.MPOSServiceListener",
                        "usr": "c:objc(pl)MPOSServiceListener"
                      }
                    ]
                  }
                ],
                "hasDefaultArg": true,
                "usr": "s:Sq"
              },
              {
                "kind": "TypeNominal",
                "name": "Optional",
                "printedName": "((any MagicPosHardware.MPOSServiceListener) -> ())?",
                "children": [
                  {
                    "kind": "TypeFunc",
                    "name": "Function",
                    "printedName": "(any MagicPosHardware.MPOSServiceListener) -> ()",
                    "children": [
                      {
                        "kind": "TypeNominal",
                        "name": "Void",
                        "printedName": "()"
                      },
                      {
                        "kind": "TypeNominal",
                        "name": "MPOSServiceListener",
                        "printedName": "any MagicPosHardware.MPOSServiceListener",
                        "usr": "c:objc(pl)MPOSServiceListener"
                      }
                    ]
                  }
                ],
                "hasDefaultArg": true,
                "usr": "s:Sq"
              },
              {
                "kind": "TypeNominal",
                "name": "Optional",
                "printedName": "((any MagicPosHardware.MPOSServiceListener) -> ())?",
                "children": [
                  {
                    "kind": "TypeFunc",
                    "name": "Function",
                    "printedName": "(any MagicPosHardware.MPOSServiceListener) -> ()",
                    "children": [
                      {
                        "kind": "TypeNominal",
                        "name": "Void",
                        "printedName": "()"
                      },
                      {
                        "kind": "TypeNominal",
                        "name": "MPOSServiceListener",
                        "printedName": "any MagicPosHardware.MPOSServiceListener",
                        "usr": "c:objc(pl)MPOSServiceListener"
                      }
                    ]
                  }
                ],
                "hasDefaultArg": true,
                "usr": "s:Sq"
              },
              {
                "kind": "TypeNominal",
                "name": "Optional",
                "printedName": "((any MagicPosHardware.MPOSServiceListener) -> ())?",
                "children": [
                  {
                    "kind": "TypeFunc",
                    "name": "Function",
                    "printedName": "(any MagicPosHardware.MPOSServiceListener) -> ()",
                    "children": [
                      {
                        "kind": "TypeNominal",
                        "name": "Void",
                        "printedName": "()"
                      },
                      {
                        "kind": "TypeNominal",
                        "name": "MPOSServiceListener",
                        "printedName": "any MagicPosHardware.MPOSServiceListener",
                        "usr": "c:objc(pl)MPOSServiceListener"
                      }
                    ]
                  }
                ],
                "hasDefaultArg": true,
                "usr": "s:Sq"
              },
              {
                "kind": "TypeNominal",
                "name": "Optional",
                "printedName": "((any MagicPosHardware.MPOSServiceListener) -> ())?",
                "children": [
                  {
                    "kind": "TypeFunc",
                    "name": "Function",
                    "printedName": "(any MagicPosHardware.MPOSServiceListener) -> ()",
                    "children": [
                      {
                        "kind": "TypeNominal",
                        "name": "Void",
                        "printedName": "()"
                      },
                      {
                        "kind": "TypeNominal",
                        "name": "MPOSServiceListener",
                        "printedName": "any MagicPosHardware.MPOSServiceListener",
                        "usr": "c:objc(pl)MPOSServiceListener"
                      }
                    ]
                  }
                ],
                "hasDefaultArg": true,
                "usr": "s:Sq"
              },
              {
                "kind": "TypeNominal",
                "name": "Optional",
                "printedName": "((any MagicPosHardware.MPOSServiceListener) -> ())?",
                "children": [
                  {
                    "kind": "TypeFunc",
                    "name": "Function",
                    "printedName": "(any MagicPosHardware.MPOSServiceListener) -> ()",
                    "children": [
                      {
                        "kind": "TypeNominal",
                        "name": "Void",
                        "printedName": "()"
                      },
                      {
                        "kind": "TypeNominal",
                        "name": "MPOSServiceListener",
                        "printedName": "any MagicPosHardware.MPOSServiceListener",
                        "usr": "c:objc(pl)MPOSServiceListener"
                      }
                    ]
                  }
                ],
                "hasDefaultArg": true,
                "usr": "s:Sq"
              },
              {
                "kind": "TypeNominal",
                "name": "Optional",
                "printedName": "((Swift.Bool) -> [Swift.AnyHashable : Any])?",
                "children": [
                  {
                    "kind": "TypeFunc",
                    "name": "Function",
                    "printedName": "(Swift.Bool) -> [Swift.AnyHashable : Any]",
                    "children": [
                      {
                        "kind": "TypeNominal",
                        "name": "Dictionary",
                        "printedName": "[Swift.AnyHashable : Any]",
                        "children": [
                          {
                            "kind": "TypeNominal",
                            "name": "AnyHashable",
                            "printedName": "Swift.AnyHashable",
                            "usr": "s:s11AnyHashableV"
                          },
                          {
                            "kind": "TypeNominal",
                            "name": "ProtocolComposition",
                            "printedName": "Any"
                          }
                        ],
                        "usr": "s:SD"
                      },
                      {
                        "kind": "TypeNominal",
                        "name": "Bool",
                        "printedName": "Swift.Bool",
                        "usr": "s:Sb"
                      }
                    ]
                  }
                ],
                "hasDefaultArg": true,
                "usr": "s:Sq"
              }
            ],
            "declKind": "Func",
            "usr": "s:16MagicPosHardware0aB14MocksProvidersO18provideMposService26useDefaultConnectionAnswer01ag4InfoL001ag2IdL009aStartEmvL0015aUpdateFirmwareL001aqp13ConfigurationL0017aSendOnlineResultL0012aWaitForCardL07iccTagsAA23StubMPOSServiceProtocolCSb_ySo19MPOSServiceListener_pcSgA6QSDys11AnyHashableVypGSbcSgtFZ",
            "mangledName": "$s16MagicPosHardware0aB14MocksProvidersO18provideMposService26useDefaultConnectionAnswer01ag4InfoL001ag2IdL009aStartEmvL0015aUpdateFirmwareL001aqp13ConfigurationL0017aSendOnlineResultL0012aWaitForCardL07iccTagsAA23StubMPOSServiceProtocolCSb_ySo19MPOSServiceListener_pcSgA6QSDys11AnyHashableVypGSbcSgtFZ",
            "moduleName": "MagicPosHardware",
            "static": true,
            "declAttributes": [
              "AccessControl"
            ],
            "funcSelfKind": "NonMutating"
          }
        ],
        "declKind": "Enum",
        "usr": "s:16MagicPosHardware0aB14MocksProvidersO",
        "mangledName": "$s16MagicPosHardware0aB14MocksProvidersO",
        "moduleName": "MagicPosHardware",
        "declAttributes": [
          "AccessControl",
          "RawDocComment"
        ]
      },
      {
        "kind": "Import",
        "name": "TransactionSDK",
        "printedName": "TransactionSDK",
        "declKind": "Import",
        "moduleName": "MagicPosHardware",
        "declAttributes": [
          "RawDocComment"
        ]
      },
      {
        "kind": "Import",
        "name": "TransactionSDK",
        "printedName": "TransactionSDK",
        "declKind": "Import",
        "moduleName": "MagicPosHardware",
        "declAttributes": [
          "RawDocComment"
        ]
      },
      {
        "kind": "Import",
        "name": "TransactionSDK",
        "printedName": "TransactionSDK",
        "declKind": "Import",
        "moduleName": "MagicPosHardware",
        "declAttributes": [
          "RawDocComment"
        ]
      },
      {
        "kind": "TypeDecl",
        "name": "StubMPOSServiceProtocol",
        "printedName": "StubMPOSServiceProtocol",
        "declKind": "Class",
        "usr": "s:16MagicPosHardware23StubMPOSServiceProtocolC",
        "mangledName": "$s16MagicPosHardware23StubMPOSServiceProtocolC",
        "moduleName": "MagicPosHardware",
        "declAttributes": [
          "AccessControl"
        ],
        "hasMissingDesignatedInitializers": true
      },
      {
        "kind": "Import",
        "name": "TransactionSDK",
        "printedName": "TransactionSDK",
        "declKind": "Import",
        "moduleName": "MagicPosHardware",
        "declAttributes": [
          "RawDocComment"
        ]
      },
      {
        "kind": "TypeDecl",
        "name": "MagicPosReaderConfigurationFactory",
        "printedName": "MagicPosReaderConfigurationFactory",
        "children": [
          {
            "kind": "Function",
            "name": "magicPosFirmwareFiles",
            "printedName": "magicPosFirmwareFiles(firmware:)",
            "children": [
              {
                "kind": "TypeNominal",
                "name": "ReaderConfigurationFiles",
                "printedName": "any TransactionSDK.ReaderConfigurationFiles",
                "usr": "s:14TransactionSDK24ReaderConfigurationFilesP"
              },
              {
                "kind": "TypeNominal",
                "name": "URL",
                "printedName": "Foundation.URL",
                "usr": "s:10Foundation3URLV"
              }
            ],
            "declKind": "Func",
            "usr": "s:16MagicPosHardware0aB26ReaderConfigurationFactoryO05magicB13FirmwareFiles8firmware14TransactionSDK0deI0_p10Foundation3URLV_tFZ",
            "mangledName": "$s16MagicPosHardware0aB26ReaderConfigurationFactoryO05magicB13FirmwareFiles8firmware14TransactionSDK0deI0_p10Foundation3URLV_tFZ",
            "moduleName": "MagicPosHardware",
            "static": true,
            "declAttributes": [
              "AccessControl",
              "RawDocComment"
            ],
            "funcSelfKind": "NonMutating"
          },
          {
            "kind": "Function",
            "name": "magicPosEmvFiles",
            "printedName": "magicPosEmvFiles(emvConfiguration:)",
            "children": [
              {
                "kind": "TypeNominal",
                "name": "ReaderConfigurationFiles",
                "printedName": "any TransactionSDK.ReaderConfigurationFiles",
                "usr": "s:14TransactionSDK24ReaderConfigurationFilesP"
              },
              {
                "kind": "TypeNominal",
                "name": "URL",
                "printedName": "Foundation.URL",
                "usr": "s:10Foundation3URLV"
              }
            ],
            "declKind": "Func",
            "usr": "s:16MagicPosHardware0aB26ReaderConfigurationFactoryO05magicB8EmvFiles03emvE014TransactionSDK0deI0_p10Foundation3URLV_tFZ",
            "mangledName": "$s16MagicPosHardware0aB26ReaderConfigurationFactoryO05magicB8EmvFiles03emvE014TransactionSDK0deI0_p10Foundation3URLV_tFZ",
            "moduleName": "MagicPosHardware",
            "static": true,
            "declAttributes": [
              "AccessControl",
              "RawDocComment"
            ],
            "funcSelfKind": "NonMutating"
          },
          {
            "kind": "Function",
            "name": "magicPosFirmwareEmvFiles",
            "printedName": "magicPosFirmwareEmvFiles(firmwareEmv:)",
            "children": [
              {
                "kind": "TypeNominal",
                "name": "ReaderConfigurationFiles",
                "printedName": "any TransactionSDK.ReaderConfigurationFiles",
                "usr": "s:14TransactionSDK24ReaderConfigurationFilesP"
              },
              {
                "kind": "TypeNominal",
                "name": "URL",
                "printedName": "Foundation.URL",
                "usr": "s:10Foundation3URLV"
              }
            ],
            "declKind": "Func",
            "usr": "s:16MagicPosHardware0aB26ReaderConfigurationFactoryO05magicB16FirmwareEmvFiles08firmwareI014TransactionSDK0deJ0_p10Foundation3URLV_tFZ",
            "mangledName": "$s16MagicPosHardware0aB26ReaderConfigurationFactoryO05magicB16FirmwareEmvFiles08firmwareI014TransactionSDK0deJ0_p10Foundation3URLV_tFZ",
            "moduleName": "MagicPosHardware",
            "static": true,
            "declAttributes": [
              "AccessControl",
              "RawDocComment"
            ],
            "funcSelfKind": "NonMutating"
          }
        ],
        "declKind": "Enum",
        "usr": "s:16MagicPosHardware0aB26ReaderConfigurationFactoryO",
        "mangledName": "$s16MagicPosHardware0aB26ReaderConfigurationFactoryO",
        "moduleName": "MagicPosHardware",
        "declAttributes": [
          "AccessControl"
        ]
      },
      {
        "kind": "Import",
        "name": "TransactionSDK",
        "printedName": "TransactionSDK",
        "declKind": "Import",
        "moduleName": "MagicPosHardware",
        "declAttributes": [
          "RawDocComment"
        ]
      },
      {
        "kind": "Import",
        "name": "TransactionSDK",
        "printedName": "TransactionSDK",
        "declKind": "Import",
        "moduleName": "MagicPosHardware",
        "declAttributes": [
          "RawDocComment"
        ]
      },
      {
        "kind": "TypeDecl",
        "name": "MagicPosReaderInstaller",
        "printedName": "MagicPosReaderInstaller",
        "children": [
          {
            "kind": "Constructor",
            "name": "init",
            "printedName": "init()",
            "children": [
              {
                "kind": "TypeNominal",
                "name": "MagicPosReaderInstaller",
                "printedName": "MagicPosHardware.MagicPosReaderInstaller",
                "usr": "s:16MagicPosHardware0aB15ReaderInstallerV"
              }
            ],
            "declKind": "Constructor",
            "usr": "s:16MagicPosHardware0aB15ReaderInstallerVACycfc",
            "mangledName": "$s16MagicPosHardware0aB15ReaderInstallerVACycfc",
            "moduleName": "MagicPosHardware",
            "declAttributes": [
              "AccessControl"
            ],
            "init_kind": "Designated"
          },
          {
            "kind": "Function",
            "name": "install",
            "printedName": "install()",
            "children": [
              {
                "kind": "TypeNominal",
                "name": "Void",
                "printedName": "()"
              }
            ],
            "declKind": "Func",
            "usr": "s:16MagicPosHardware0aB15ReaderInstallerV7installyyF",
            "mangledName": "$s16MagicPosHardware0aB15ReaderInstallerV7installyyF",
            "moduleName": "MagicPosHardware",
            "declAttributes": [
              "AccessControl"
            ],
            "funcSelfKind": "NonMutating"
          }
        ],
        "declKind": "Struct",
        "usr": "s:16MagicPosHardware0aB15ReaderInstallerV",
        "mangledName": "$s16MagicPosHardware0aB15ReaderInstallerV",
        "moduleName": "MagicPosHardware",
        "declAttributes": [
          "AccessControl",
          "RawDocComment"
        ],
        "conformances": [
          {
            "kind": "Conformance",
            "name": "ReaderInstaller",
            "printedName": "ReaderInstaller",
            "usr": "s:14TransactionSDK15ReaderInstallerP",
            "mangledName": "$s14TransactionSDK15ReaderInstallerP"
          }
        ]
      },
      {
        "kind": "TypeDecl",
        "name": "MPOSService",
        "printedName": "MPOSService",
        "declKind": "Class",
        "usr": "c:objc(cs)MPOSService",
        "moduleName": "MagicPosHardware",
        "isOpen": true,
        "objc_name": "MPOSService",
        "declAttributes": [
          "ObjC",
          "Dynamic"
        ],
        "superclassUsr": "c:objc(cs)NSObject",
        "isExternal": true,
        "inheritsConvenienceInitializers": true,
        "superclassNames": [
          "ObjectiveC.NSObject"
        ],
        "conformances": [
          {
            "kind": "Conformance",
            "name": "Equatable",
            "printedName": "Equatable",
            "usr": "s:SQ",
            "mangledName": "$sSQ"
          },
          {
            "kind": "Conformance",
            "name": "Hashable",
            "printedName": "Hashable",
            "usr": "s:SH",
            "mangledName": "$sSH"
          },
          {
            "kind": "Conformance",
            "name": "CVarArg",
            "printedName": "CVarArg",
            "usr": "s:s7CVarArgP",
            "mangledName": "$ss7CVarArgP"
          },
          {
            "kind": "Conformance",
            "name": "_KeyValueCodingAndObservingPublishing",
            "printedName": "_KeyValueCodingAndObservingPublishing",
            "usr": "s:10Foundation37_KeyValueCodingAndObservingPublishingP",
            "mangledName": "$s10Foundation37_KeyValueCodingAndObservingPublishingP"
          },
          {
            "kind": "Conformance",
            "name": "_KeyValueCodingAndObserving",
            "printedName": "_KeyValueCodingAndObserving",
            "usr": "s:10Foundation27_KeyValueCodingAndObservingP",
            "mangledName": "$s10Foundation27_KeyValueCodingAndObservingP"
          },
          {
            "kind": "Conformance",
            "name": "CustomStringConvertible",
            "printedName": "CustomStringConvertible",
            "usr": "s:s23CustomStringConvertibleP",
            "mangledName": "$ss23CustomStringConvertibleP"
          },
          {
            "kind": "Conformance",
            "name": "CustomDebugStringConvertible",
            "printedName": "CustomDebugStringConvertible",
            "usr": "s:s28CustomDebugStringConvertibleP",
            "mangledName": "$ss28CustomDebugStringConvertibleP"
          }
        ]
      }
    ],
    "json_format_version": 8
  },
  "ConstValues": [
    {
      "filePath": "\/Users\/ci_user\/.gitlab-runner-17\/builds\/Art8TJLk_\/0\/geopagos\/apps\/libraries\/transaction-sdk-ios\/MagicPosHardware\/MagicPosHardware\/HardwareReaders\/PosServiceForMagicPos.swift",
      "kind": "BooleanLiteral",
      "offset": 522,
      "length": 5,
      "value": "false"
    },
    {
      "filePath": "\/Users\/ci_user\/.gitlab-runner-17\/builds\/Art8TJLk_\/0\/geopagos\/apps\/libraries\/transaction-sdk-ios\/MagicPosHardware\/MagicPosHardware\/HardwareReaders\/PosServiceForMagicPos.swift",
      "kind": "StringLiteral",
      "offset": 197,
      "length": 21,
      "value": "\"MagicPosHardware.PosServiceForMagicPos\""
    },
    {
      "filePath": "\/Users\/ci_user\/.gitlab-runner-17\/builds\/Art8TJLk_\/0\/geopagos\/apps\/libraries\/transaction-sdk-ios\/MagicPosHardware\/MagicPosHardware\/HardwareReaders\/MagicPosHardwareReader.swift",
      "kind": "StringLiteral",
      "offset": 197,
      "length": 22,
      "value": "\"MagicPosHardware.MagicPosHardwareReader\""
    },
    {
      "filePath": "\/Users\/ci_user\/.gitlab-runner-17\/builds\/Art8TJLk_\/0\/geopagos\/apps\/libraries\/transaction-sdk-ios\/MagicPosHardware\/MagicPosHardware\/MocksProviders\/MagicPosMocksProviders.swift",
      "kind": "BooleanLiteral",
      "offset": 313,
      "length": 4,
      "value": "true"
    },
    {
      "filePath": "\/Users\/ci_user\/.gitlab-runner-17\/builds\/Art8TJLk_\/0\/geopagos\/apps\/libraries\/transaction-sdk-ios\/MagicPosHardware\/MagicPosHardware\/MocksProviders\/StubMPOSServiceProtocol.swift",
      "kind": "BooleanLiteral",
      "offset": 375,
      "length": 4,
      "value": "true"
    }
  ]
}